#separator \x09
#set_separator	,
#empty_field	(empty)
#unset_field	-
#path	metadata
#open	2015-09-05-18-38-21
#fields	uid	hostname	cookiedomain	username	targetcookie	analyze	analyzed
#types	string	string	string	string	string	bool	bool
C7T0m84QO5FBSrj6ee	csc.beap.bc.yahoo.com	yahoo	-	B=959rt0hau40a8	T	F
Cq4QG5wgBwxy7JLl9	ads.yahoo.com	yahoo	-	B=959rt0hau40a8	T	F
C4CXSh30Kwb37kHRj	arstechnica.com	arstechnica	arstechnica: brorocksdude	phpbb3_5qbzr_u=503807	T	T
CACWja41qhGaLLwnX	stats2.arstechnica.com	-	arstechnica: brorocksdude	-	F	T
CMQ2G7390s4dfvFjG5	pr.ybp.yahoo.com	yahoo	-	B=959rt0hau40a8	T	F
C1F3hd37MchgMjX9gk	na.ads.yahoo.com	yahoo	-	B=959rt0hau40a8	T	F
CtwULj1WPjzIhV32Nd	na.ads.yahoo.com	yahoo	-	B=959rt0hau40a8	T	F
C20Hvp1PjqXhrJQI66	na.ads.yahoo.com	yahoo	-	B=959rt0hau40a8	T	F
CcO54p4LzIPEbel9sf	beap-bc.yahoo.com	yahoo	-	B=959rt0hau40a8	T	F
CwRLaJ2695zj4KSeDd	y.analytics.yahoo.com	yahoo	-	B=959rt0hau40a8	T	F
CSWKNP3Bm3PKCppQX4	geo.query.yahoo.com	yahoo	-	B=959rt0hau40a8	T	F
CmRiTC3oPneUWPKIU5	pr.comet.yahoo.com	yahoo	-	B=959rt0hau40a8	T	F
C5EnfeyqatY3G8kg6	sports.yahoo.com	-	yahoo: broidsrocks	-	F	T
CAPPnx2bZ3wzOQseLh	sports.yahoo.com	-	yahoo: broidsrocks	-	F	T
CWnu672qxBD367KDnd	geo.yahoo.com	yahoo	-	B=959rt0hau40a8	T	F
CBILulFfmku6yKj82	pr.comet.yahoo.com	yahoo	-	B=959rt0hau40a8	T	F
CnJvFF23F3dN7pkGpa	y.analytics.yahoo.com	yahoo	-	B=959rt0hau40a8	T	F
CIasGE1yYZTxEBeUlf	lh.secure.yahoo.com	yahoo	-	B=959rt0hau40a8	T	F
#close	2015-09-05-18-38-22
