116.11.17.143
116.11.19.207
116.11.19.152
116.11.20.132
116.11.20.183
116.11.22.38
116.11.23.246
116.11.24.1
116.11.32.43
116.11.32.40
116.11.32.36
116.11.32.35
116.11.33.53
116.11.34.1
116.11.40.41
116.11.40.8
116.11.40.188
116.11.40.1
116.11.40.183
116.11.40.96
116.11.40.79
116.11.40.78
116.11.40.107
116.11.40.166
116.11.40.102
116.11.40.129
116.11.40.73
116.11.40.72
116.11.40.247
116.11.40.35
116.11.40.50
116.11.40.30
116.11.40.19
116.11.40.13
116.11.40.190
116.11.40.65
116.11.40.195
116.11.40.158
116.11.40.117
116.11.40.152
116.11.40.63
116.11.40.254
116.11.40.173
116.11.40.134
116.11.40.136
116.11.40.88
116.11.40.130
116.11.41.175
116.11.41.170
116.11.41.119
116.11.41.178
116.11.41.22
116.11.41.24
116.11.41.28
116.11.41.60
116.11.41.63
116.11.41.62
116.11.41.47
116.11.41.208
116.11.41.223
116.11.41.43
116.11.41.225
116.11.41.181
116.11.41.183
116.11.41.145
116.11.41.84
116.11.41.123
116.11.41.220
116.11.41.102
116.11.41.149
116.11.41.148
116.11.40.19
116.11.41.106
116.11.41.109
116.11.41.35
116.11.41.33
116.11.41.31
116.11.41.11
116.11.41.15
116.11.41.38
116.11.41.237
116.11.41.233
116.11.41.70
116.11.41.57
116.11.41.50
116.11.41.77
116.11.41.78
116.11.41.215
116.11.41.138
116.11.41.250
116.11.41.95
116.11.41.137
116.11.41.68
116.11.42.161
116.11.42.163
116.11.42.166
116.11.42.239
116.11.42.241
116.11.42.240
116.11.42.229
116.11.42.81
116.11.42.86
116.11.42.49
116.11.42.46
116.11.42.45
116.11.42.42
116.11.42.43
116.11.42.64
116.11.42.29
116.11.42.69
116.11.42.174
116.11.42.39
116.11.42.157
116.11.42.178
116.11.42.131
116.11.42.198
116.11.42.214
116.11.42.190
116.11.42.193
116.11.42.192
116.11.42.17
116.11.42.38
116.11.42.18
116.11.43.125
116.11.43.103
116.11.43.120
116.11.43.124
116.11.43.109
116.11.43.108
116.11.43.206
116.11.43.244
116.11.43.18
116.11.43.243
116.11.43.228
116.11.43.27
116.11.43.26
116.11.43.42
116.11.43.179
116.11.43.63
116.11.43.119
116.11.43.60
116.11.43.173
116.11.43.117
116.11.43.174
116.11.43.155
116.11.43.38
116.11.43.215
116.11.43.230
116.11.43.233
116.11.43.192
116.11.43.253
116.11.43.254
116.11.43.16
116.11.43.82
116.11.43.13
116.11.43.11
116.11.43.36
116.11.43.169
116.11.43.145
116.11.43.143
116.11.43.57
116.11.43.99
116.11.43.173
116.11.43.145
116.11.44.1
116.11.52.1
116.11.54.1
116.11.88.147
116.11.88.3
116.11.88.168
116.11.88.163
116.11.88.22
116.11.88.29
116.11.88.197
116.11.88.109
116.11.88.221
116.11.88.180
116.11.88.135
116.11.88.138
116.11.88.38
116.11.88.76
116.11.88.15
116.11.88.14
116.11.88.57
116.11.88.55
116.11.88.185
116.11.88.249
116.11.88.92
116.11.88.207
116.11.88.107
116.11.89.241
116.11.89.112
116.11.89.209
116.11.89.120
116.11.89.70
116.11.89.13
116.11.89.39
116.11.89.252
116.11.89.149
116.11.89.148
116.11.89.173
116.11.89.162
116.11.89.142
116.11.89.146
116.11.89.238
116.11.89.109
116.11.89.213
116.11.89.63
116.11.89.67
116.11.89.47
116.11.89.23
116.11.89.170
116.11.89.159
116.11.89.138
116.11.89.139
116.11.89.88
116.11.89.112
116.11.90.48
116.11.90.45
116.11.90.26
116.11.90.64
116.11.90.119
116.11.90.60
116.11.90.158
116.11.90.87
116.11.90.136
116.11.90.137
116.11.90.134
116.11.90.246
116.11.90.138
116.11.90.235
116.11.90.36
116.11.90.70
116.11.90.97
116.11.90.101
116.11.90.126
116.11.90.122
116.11.90.108
116.11.90.222
116.11.90.245
116.11.90.220
116.11.90.242
116.11.90.3
116.11.90.143
116.11.91.83
116.11.91.186
116.11.91.5
116.11.91.88
116.11.91.182
116.11.91.183
116.11.91.60
116.11.91.62
116.11.91.21
116.11.91.170
116.11.91.154
116.11.91.179
116.11.91.249
116.11.91.137
116.11.91.95
116.11.91.111
116.11.91.92
116.11.91.234
116.11.91.235
116.11.91.227
116.11.91.196
116.11.91.212
116.11.91.94
116.11.91.34
116.11.91.18
116.11.91.166
116.11.91.167
116.11.91.168
116.11.90.108
116.11.91.144
116.11.91.105
116.11.96.251
116.11.96.250
116.11.96.115
116.11.96.183
116.11.97.120
116.11.97.54
116.11.97.3
116.11.97.48
116.11.97.166
116.11.97.201
116.11.97.230
116.11.97.126
116.11.97.76
116.11.98.91
116.11.98.145
116.11.98.232
116.11.98.143
116.11.98.181
116.11.98.140
116.11.98.161
116.11.98.252
116.11.98.82
116.11.98.165
116.11.98.166
116.11.98.125
116.11.98.215
116.11.98.120
116.11.98.23
116.11.98.45
116.11.98.47
116.11.98.46
116.11.98.41
116.11.98.25
116.11.98.245
116.11.98.62
116.11.98.60
116.11.98.204
116.11.98.69
116.11.98.209
116.11.98.220
116.11.98.241
116.11.98.156
116.11.98.3
116.11.98.224
116.11.98.113
116.11.98.137
116.11.98.236
116.11.98.98
116.11.98.16
116.11.98.12
116.11.98.31
116.11.98.58
116.11.98.59
116.11.98.79
116.11.98.53
116.11.98.57
116.11.98.55
116.11.99.222
116.11.99.221
116.11.99.138
116.11.99.226
116.11.99.156
116.11.98.145
116.11.99.137
116.11.99.126
116.11.99.51
116.11.99.53
116.11.99.215
116.11.99.11
116.11.99.76
116.11.99.36
116.11.99.33
116.11.99.108
116.11.99.38
116.11.99.168
116.11.99.243
116.11.99.97
116.11.99.236
116.11.99.66
116.11.99.93
116.11.99.181
116.11.99.161
116.11.99.250
116.11.99.163
116.11.99.165
116.11.99.1
116.11.99.0
116.11.99.214
116.11.99.127
116.11.99.212
116.11.99.147
116.11.99.122
116.11.99.145
116.11.99.107
116.11.99.148
116.11.99.136
116.11.99.124
116.11.99.80
116.11.99.48
116.11.99.25
116.11.99.174
116.11.99.23
116.11.99.86
116.11.99.194
116.11.99.88
116.11.99.175
116.11.99.81
116.11.99.245
116.11.99.229
116.11.107.214
116.11.120.108
116.11.120.1
116.11.120.225
116.11.120.59
116.11.121.16
116.11.123.168
116.11.123.227
116.11.128.185
116.11.128.194
116.11.128.29
116.11.128.166
116.11.128.128
116.11.128.129
116.11.128.100
116.11.128.168
116.11.128.169
116.11.128.173
116.11.128.98
116.11.128.161
116.11.128.18
116.11.128.250
116.11.128.254
116.11.128.14
116.11.128.13
116.11.128.218
116.11.128.253
116.11.128.36
116.11.128.195
116.11.128.76
116.11.128.201
116.11.128.73
116.11.128.72
116.11.128.203
116.11.128.202
116.11.128.9
116.11.128.8
116.11.128.123
116.11.128.114
116.11.128.3
116.11.128.152
116.11.128.151
116.11.128.225
116.11.128.6
116.11.128.5
116.11.128.4
116.11.128.117
116.11.128.170
116.11.128.115
116.11.128.83
116.11.128.139
116.11.128.111
116.11.128.89
116.11.128.137
116.11.128.131
116.11.128.119
116.11.128.118
116.11.128.239
116.11.128.190
116.11.128.233
116.11.128.26
116.11.128.219
116.11.128.23
116.11.128.172
116.11.128.40
116.11.128.41
116.11.128.69
116.11.128.7
116.11.128.64
116.11.128.49
116.11.128.61
116.11.128.181
116.11.128.216
116.11.128.149
116.11.128.212
116.11.128.196
116.11.128.189
116.11.128.140
116.11.128.77
116.11.128.235
116.11.129.188
116.11.129.25
116.11.129.21
116.11.129.29
116.11.129.163
116.11.129.165
116.11.129.212
116.11.129.36
116.11.129.37
116.11.129.38
116.11.129.197
116.11.129.207
116.11.129.202
116.11.129.201
116.11.129.114
116.11.129.112
116.11.129.113
116.11.129.110
116.11.129.209
116.11.129.89
116.11.129.186
116.11.129.82
116.11.129.80
116.11.129.189
116.11.129.86
116.11.129.84
116.11.129.214
116.11.129.211
116.11.129.1
116.11.129.100
116.11.129.8
116.11.129.93
116.11.129.221
116.11.129.229
116.11.129.132
116.11.129.136
116.11.129.69
116.11.129.68
116.11.129.60
116.11.129.63
116.11.129.67
116.11.129.66
116.11.129.239
116.11.129.236
116.11.129.234
116.11.129.233
116.11.129.230
116.11.129.127
116.11.129.122
116.11.129.121
116.11.129.120
116.11.128.5
116.11.129.128
116.11.129.79
116.11.129.73
116.11.129.76
116.11.129.75
116.11.129.240
116.11.129.241
116.11.129.246
116.11.129.247
116.11.129.244
116.11.129.245
116.11.129.156
116.11.129.158
116.11.129.43
116.11.129.41
116.11.129.48
116.11.129.250
116.11.129.141
116.11.129.140
116.11.129.146
116.11.129.149
116.11.129.51
116.11.129.55
116.11.129.57
116.11.129.59
116.11.129.178
116.11.129.179
116.11.129.175
116.11.129.173
116.11.130.116
116.11.130.112
116.11.130.113
116.11.130.132
116.11.130.245
116.11.130.210
116.11.130.138
116.11.129.66
116.11.130.221
116.11.130.226
116.11.130.154
116.11.130.155
116.11.130.156
116.11.130.182
116.11.130.158
116.11.130.159
116.11.130.196
116.11.130.197
116.11.130.181
116.11.130.202
116.11.130.179
116.11.130.234
116.11.130.75
116.11.130.219
116.11.130.36
116.11.130.37
116.11.130.233
116.11.130.13
116.11.130.10
116.11.130.16
116.11.130.17
116.11.130.15
116.11.130.186
116.11.130.133
116.11.130.128
116.11.130.108
116.11.130.73
116.11.130.142
116.11.130.137
116.11.130.89
116.11.130.88
116.11.130.215
116.11.130.214
116.11.130.223
116.11.130.211
116.11.130.162
116.11.130.83
116.11.130.135
116.11.130.227
116.11.130.84
116.11.130.185
116.11.130.165
116.11.130.29
116.11.130.28
116.11.130.193
116.11.130.167
116.11.129.244
116.11.130.207
116.11.130.65
116.11.130.60
116.11.130.67
116.11.130.43
116.11.130.64
116.11.130.113
116.11.131.236
116.11.131.137
116.11.131.130
116.11.131.60
116.11.131.62
116.11.130.17
116.11.130.106
116.11.131.45
116.11.131.91
116.11.130.181
116.11.131.140
116.11.131.146
116.11.131.90
116.11.131.93
116.11.131.145
116.11.131.15
116.11.131.14
116.11.131.10
116.11.131.13
116.11.130.248
116.11.130.240
116.11.131.254
116.11.130.227
116.11.131.152
116.11.131.155
116.11.131.81
116.11.131.159
116.11.131.89
116.11.131.249
116.11.131.68
116.11.131.241
116.11.131.7
116.11.131.3
116.11.130.165
116.11.131.164
116.11.131.160
116.11.131.161
116.11.131.37
116.11.131.34
116.11.131.179
116.11.130.226
116.11.130.159
116.11.130.223
116.11.130.221
116.11.131.85
116.11.131.24
116.11.131.25
116.11.131.26
116.11.131.27
116.11.130.245
116.11.130.55
116.11.130.142
116.11.131.186
116.11.131.182
116.11.131.181
116.11.130.234
116.11.131.108
116.11.131.105
116.11.131.100
116.11.131.52
116.11.131.55
116.11.131.56
116.11.131.58
116.11.130.67
116.11.130.65
116.11.130.64
116.11.130.132
116.11.131.216
116.11.131.217
116.11.131.196
116.11.131.212
116.11.131.190
116.11.131.193
116.11.131.211
116.11.130.202
116.11.131.70
116.11.131.114
116.11.131.41
116.11.131.47
116.11.130.73
116.11.130.108
116.11.130.89
116.11.131.204
116.11.130.214
116.11.131.201
116.11.131.200
116.11.130.83
116.11.130.84
116.11.131.78
116.11.131.120
116.11.131.73
116.11.131.125
116.11.131.126
116.11.131.127
116.11.131.181
116.11.131.10
116.11.131.127
116.11.131.45
116.11.144.212
116.11.144.90
116.11.144.247
116.11.144.246
116.11.144.95
116.11.144.97
116.11.144.244
116.11.144.99
116.11.144.125
116.11.144.249
116.11.144.139
116.11.144.119
116.11.144.101
116.11.144.5
116.11.144.4
116.11.144.149
116.11.144.165
116.11.144.8
116.11.144.108
116.11.144.145
116.11.144.164
116.11.144.162
116.11.144.140
116.11.144.20
116.11.144.223
116.11.144.23
116.11.144.68
116.11.144.25
116.11.144.64
116.11.144.29
116.11.144.242
116.11.144.218
116.11.144.106
116.11.144.63
116.11.144.199
116.11.144.198
116.11.144.236
116.11.144.43
116.11.144.40
116.11.144.191
116.11.144.213
116.11.144.239
116.11.144.48
116.11.144.83
116.11.144.138
116.11.144.232
116.11.144.132
116.11.144.135
116.11.144.177
116.11.144.110
116.11.144.161
116.11.144.112
116.11.144.159
116.11.144.155
116.11.144.180
116.11.144.178
116.11.144.19
116.11.144.31
116.11.144.15
116.11.144.175
116.11.144.55
116.11.144.72
116.11.144.57
116.11.144.220
116.11.144.50
116.11.144.74
116.11.144.200
116.11.144.203
116.11.144.207
116.11.145.79
116.11.145.90
116.11.145.134
116.11.145.137
116.11.145.112
116.11.145.73
116.11.145.74
116.11.145.76
116.11.145.99
116.11.145.34
116.11.145.53
116.11.145.51
116.11.145.32
116.11.144.149
116.11.145.17
116.11.145.15
116.11.145.12
116.11.145.39
116.11.145.10
116.11.145.128
116.11.145.88
116.11.145.8
116.11.145.9
116.11.145.38
116.11.145.6
116.11.145.82
116.11.145.0
116.11.145.72
116.11.145.104
116.11.145.81
116.11.145.102
116.11.145.83
116.11.145.68
116.11.145.114
116.11.145.109
116.11.145.62
116.11.145.28
116.11.145.45
116.11.145.20
116.11.145.156
116.11.145.25
116.11.145.52
116.11.145.116
116.11.145.35
116.11.145.1
116.11.146.124
116.11.146.121
116.11.146.246
116.11.146.245
116.11.146.241
116.11.146.240
116.11.146.33
116.11.146.37
116.11.146.36
116.11.146.99
116.11.146.95
116.11.146.135
116.11.146.137
116.11.146.136
116.11.146.131
116.11.146.232
116.11.146.233
116.11.146.22
116.11.145.156
116.11.146.89
116.11.146.80
116.11.146.83
116.11.145.132
116.11.146.85
116.11.146.86
116.11.146.87
116.11.146.103
116.11.146.222
116.11.146.226
116.11.146.184
116.11.146.185
116.11.146.17
116.11.146.13
116.11.146.12
116.11.146.19
116.11.146.75
116.11.146.77
116.11.146.70
116.11.146.73
116.11.146.72
116.11.146.117
116.11.146.114
116.11.146.79
116.11.146.214
116.11.146.216
116.11.146.211
116.11.146.212
116.11.146.213
116.11.146.196
116.11.146.195
116.11.146.194
116.11.146.191
116.11.146.63
116.11.146.61
116.11.146.165
116.11.144.5
116.11.146.203
116.11.146.205
116.11.146.178
116.11.146.171
116.11.146.170
116.11.146.173
116.11.146.144
116.11.146.146
116.11.146.147
116.11.146.140
116.11.146.143
116.11.146.1
116.11.146.6
116.11.146.5
116.11.146.4
116.11.144.40
116.11.146.155
116.11.146.159
116.11.146.119
116.11.146.250
116.11.146.253
116.11.146.48
116.11.146.49
116.11.146.41
116.11.147.65
116.11.147.67
116.11.147.66
116.11.147.128
116.11.147.125
116.11.147.122
116.11.147.95
116.11.147.96
116.11.147.91
116.11.147.92
116.11.147.243
116.11.147.244
116.11.146.37
116.11.147.72
116.11.147.73
116.11.147.158
116.11.147.153
116.11.147.150
116.11.147.156
116.11.147.253
116.11.147.142
116.11.147.169
116.11.146.222
116.11.146.226
116.11.146.70
116.11.147.174
116.11.147.176
116.11.147.171
116.11.147.173
116.11.147.216
116.11.147.45
116.11.147.41
116.11.147.25
116.11.147.27
116.11.147.22
116.11.147.161
116.11.147.167
116.11.147.165
116.11.147.9
116.11.147.7
116.11.147.4
116.11.147.2
116.11.147.3
116.11.147.209
116.11.147.206
116.11.147.52
116.11.147.200
116.11.147.201
116.11.147.38
116.11.147.39
116.11.147.36
116.11.147.34
116.11.147.115
116.11.147.112
116.11.147.196
116.11.147.214
116.11.147.194
116.11.147.195
116.11.147.210
116.11.147.212
116.11.147.104
116.11.147.107
116.11.147.100
116.11.147.103
116.11.147.109
116.11.147.108
116.11.147.228
116.11.147.189
116.11.147.222
116.11.147.223
116.11.147.226
116.11.147.182
116.11.147.15
116.11.147.11
116.11.147.12
116.11.147.19
116.11.147.130
116.11.147.131
116.11.147.83
116.11.147.235
116.11.146.48
116.11.147.84
116.11.147.89
116.11.147.88
116.11.147.214
116.11.148.1
116.11.147.9
116.11.184.107
116.11.184.212
116.11.184.211
116.11.184.164
116.11.184.165
116.11.184.138
116.11.184.137
116.11.184.27
116.11.185.50
116.11.185.32
116.11.185.108
116.11.185.80
116.11.186.41
116.11.186.63
116.11.186.91
116.11.186.66
116.11.186.34
116.11.186.15
116.11.185.103
116.11.186.155
116.11.186.168
116.11.187.10
116.11.187.33
116.11.187.1
116.11.188.170
116.11.189.94
116.11.189.186
116.11.190.228
116.11.190.231
116.11.190.204
116.11.190.203
116.11.190.194
116.11.190.134
116.11.190.89
116.11.191.127
116.11.191.178
116.11.191.26
116.11.191.34
116.11.191.124
116.11.191.53
116.11.191.152
116.11.191.157
116.11.191.80
116.11.191.94
116.11.191.84
116.11.191.187
116.11.191.157
116.11.191.94
116.11.191.84
116.11.191.187
116.11.200.25
116.11.200.221
116.11.200.213
116.11.200.1
116.11.201.17
116.11.201.141
116.11.221.4
116.11.221.189
116.11.224.1
116.11.224.47
116.11.225.186
116.11.225.148
116.11.232.1
116.11.232.217
116.11.234.148
116.11.234.85
116.11.234.38
116.11.235.22
116.11.235.15
116.11.235.184
116.11.236.217
116.11.236.1
116.11.235.15
116.11.238.31
116.11.238.131
116.11.238.176
116.11.240.12
116.11.240.32
116.11.240.57
116.11.240.74
116.11.240.191
116.11.240.58
116.11.240.39
116.11.240.220
116.11.240.222
116.11.240.4
116.11.240.245
116.11.240.243
116.11.240.240
116.11.240.171
116.11.240.118
116.11.240.119
116.11.240.248
116.11.240.162
116.11.240.25
116.11.240.42
116.11.240.40
116.11.240.184
116.11.240.219
116.11.240.128
116.11.240.123
116.11.240.122
116.11.240.120
116.11.240.217
116.11.240.103
116.11.240.104
116.11.240.107
116.11.240.97
116.11.240.108
116.11.240.147
116.11.240.141
116.11.241.219
116.11.241.179
116.11.241.136
116.11.241.175
116.11.241.188
116.11.241.177
116.11.241.43
116.11.241.44
116.11.241.159
116.11.241.63
116.11.241.212
116.11.241.22
116.11.241.23
116.11.241.20
116.11.241.124
116.11.241.7
116.11.241.4
116.11.241.3
116.11.241.100
116.11.241.234
116.11.241.103
116.11.241.148
116.11.241.97
116.11.241.95
116.11.241.58
116.11.241.225
116.11.241.53
116.11.241.128
116.11.241.165
116.11.241.144
116.11.241.84
116.11.241.18
116.11.241.79
116.11.241.78
116.11.241.36
116.11.241.30
116.11.241.195
116.11.241.199
116.11.241.118
116.11.241.130
116.11.241.86
116.11.241.110
116.11.241.117
116.11.241.83
116.11.242.48
116.11.242.65
116.11.242.8
116.11.242.9
116.11.242.101
116.11.242.105
116.11.242.104
116.11.242.253
116.11.242.1
116.11.242.86
116.11.241.22
116.11.242.217
116.11.242.239
116.11.242.163
116.11.242.187
116.11.242.218
116.11.242.39
116.11.242.30
116.11.242.36
116.11.242.74
116.11.242.165
116.11.242.58
116.11.242.120
116.11.242.114
116.11.242.115
116.11.242.113
116.11.242.245
116.11.242.247
116.11.241.30
116.11.242.174
116.11.242.173
116.11.242.194
116.11.242.82
116.11.242.87
116.11.242.179
116.11.241.118
116.11.242.27
116.11.242.20
116.11.243.15
116.11.243.58
116.11.243.31
116.11.243.228
116.11.243.227
116.11.243.242
116.11.243.1
116.11.243.244
116.11.243.3
116.11.243.33
116.11.243.164
116.11.243.0
116.11.243.69
116.11.243.85
116.11.243.106
116.11.243.123
116.11.243.102
116.11.243.127
116.11.243.26
116.11.243.120
116.11.243.35
116.11.243.250
116.11.243.63
116.11.243.234
116.11.243.213
116.11.243.203
116.11.243.199
116.11.243.198
116.11.243.218
116.11.243.136
116.11.243.119
116.11.243.118
116.11.243.78
116.11.243.114
116.11.243.116
116.11.244.145
116.11.244.108
116.11.244.123
116.11.244.222
116.11.244.42
116.11.243.228
116.11.244.2
116.11.244.49
116.11.244.210
116.11.244.25
116.11.244.161
116.11.244.227
116.11.244.233
116.11.244.197
116.11.244.248
116.11.244.191
116.11.244.242
116.11.244.241
116.11.244.199
116.11.244.204
116.11.244.118
116.11.244.155
116.11.244.228
116.11.244.229
116.11.244.135
116.11.244.144
116.11.244.113
116.11.244.18
116.11.244.73
116.11.244.11
116.11.244.12
116.11.244.37
116.11.244.234
116.11.244.32
116.11.243.218
116.11.244.39
116.11.244.185
116.11.244.181
116.11.244.163
116.11.244.162
116.11.244.235
116.11.244.167
116.11.245.229
116.11.245.207
116.11.245.242
116.11.245.94
116.11.245.17
116.11.245.16
116.11.245.12
116.11.245.51
116.11.245.50
116.11.245.230
116.11.245.25
116.11.245.236
116.11.245.219
116.11.245.250
116.11.245.89
116.11.245.195
116.11.245.80
116.11.245.76
116.11.245.23
116.11.245.47
116.11.245.27
116.11.245.43
116.11.245.29
116.11.245.191
116.11.246.117
116.11.246.85
116.11.246.230
116.11.246.87
116.11.246.253
116.11.246.177
116.11.246.174
116.11.246.250
116.11.246.110
116.11.246.137
116.11.246.133
116.11.246.3
116.11.246.118
116.11.246.68
116.11.246.8
116.11.246.9
116.11.246.59
116.11.246.75
116.11.246.190
116.11.246.50
116.11.246.193
116.11.246.194
116.11.246.172
116.11.246.14
116.11.246.12
116.11.246.10
116.11.246.49
116.11.246.206
116.11.246.203
116.11.246.97
116.11.246.95
116.11.246.102
116.11.246.166
116.11.246.126
116.11.246.121
116.11.246.120
116.11.246.123
116.11.246.91
116.11.246.67
116.11.246.182
116.11.246.46
116.11.246.20
116.11.245.43
116.11.247.17
116.11.247.18
116.11.247.70
116.11.247.125
116.11.247.222
116.11.247.236
116.11.247.2
116.11.247.128
116.11.247.104
116.11.247.233
116.11.247.160
116.11.247.210
116.11.247.145
116.11.247.140
116.11.247.218
116.11.247.83
116.11.247.80
116.11.247.86
116.11.247.149
116.11.247.185
116.11.247.189
116.11.247.24
116.11.247.25
116.11.247.66
116.11.247.43
116.11.247.133
116.11.247.199
116.11.247.202
116.11.247.179
116.11.247.223
116.11.247.151
116.11.247.175
116.11.247.227
116.11.247.172
116.11.247.170
116.11.247.156
116.11.247.207
116.11.247.244
116.11.247.243
116.11.247.242
116.11.247.193
116.11.247.195
116.11.247.38
116.11.247.37
116.11.247.32
116.11.252.207
116.11.252.206
116.11.252.202
116.11.252.201
116.11.252.140
116.11.252.142
116.11.252.165
116.11.252.163
116.11.252.223
116.11.252.208
116.11.252.72
116.11.252.79
116.11.252.32
116.11.252.192
116.11.252.191
116.11.252.197
116.11.252.95
116.11.252.195
116.11.252.194
116.11.252.198
116.11.252.175
116.11.252.80
116.11.252.128
116.11.252.133
116.11.252.132
116.11.252.135
116.11.252.134
116.11.252.136
116.11.252.139
116.11.252.174
116.11.252.176
116.11.252.63
116.11.252.160
116.11.252.240
116.11.252.207
116.11.253.212
116.11.253.52
116.11.252.167
116.11.252.128
116.11.252.143
116.11.253.26
116.11.253.64
116.11.253.41
116.11.253.208
116.11.253.46
116.11.253.63
116.11.253.62
116.11.253.218
116.11.252.191
116.11.253.191
116.11.252.195
116.11.253.211
116.11.253.210
116.11.252.198
116.11.253.214
116.11.253.91
116.11.253.164
116.11.253.94
116.11.253.144
116.11.253.243
116.11.253.129
116.11.253.32
116.11.253.57
116.11.253.50
116.11.253.37
116.11.253.35
116.11.253.39
116.11.253.59
116.11.253.224
116.11.253.226
116.11.253.221
116.11.253.222
116.11.253.223
116.11.253.135
116.11.253.0
116.11.253.130
116.11.253.87
116.11.253.85
116.11.253.84
116.11.253.128
116.11.253.240
116.11.253.80
116.11.253.36
116.11.253.154
116.11.253.249
116.11.254.64
116.11.254.66
116.11.254.63
116.11.254.69
116.11.254.133
116.11.254.137
116.11.254.135
116.11.254.139
116.11.254.112
116.11.254.113
116.11.254.249
116.11.254.248
116.11.254.245
116.11.254.95
116.11.254.97
116.11.254.96
116.11.254.73
116.11.254.71
116.11.254.75
116.11.254.108
116.11.254.109
116.11.254.100
116.11.254.101
116.11.254.106
116.11.254.107
116.11.254.104
116.11.254.105
116.11.254.147
116.11.254.145
116.11.254.143
116.11.254.141
116.11.254.129
116.11.254.248
116.11.255.23
116.11.255.22
116.11.255.21
116.11.255.27
116.11.255.26
116.11.255.25
116.11.255.24
116.11.255.29
116.11.255.28
116.11.255.254
116.11.254.101
116.11.255.30
116.11.255.16
116.11.255.17
116.11.255.14
116.11.255.15
116.11.255.12
116.11.255.13
116.11.255.10
116.11.255.11
116.11.255.18
116.11.255.19
